{
	"_1688" : {
		"title" : ["#mod-detail-title .d-title"],
		"image" : [".region-detail-gallery .mod-detail-gallery .box-img img"],
		"price" : [
			".mod-detail-info-price .d-content .price-now", 
			".mod-detail-price .price .value",
			".mod-detail-price .price .price-discount-sku .value"
		],
		"color" : [".widget-custom-container .d-content .obj-leading .obj-content ul.list-leading li .unit-detail-spec-operator"],
		"size" : [".widget-custom-container .d-content .obj-sku .obj-content table.table-sku tr td.name span"]
	},

	"taobao" : {
		"title" : [".detail-bd-rt .item-title .t-title"],
		"image" : [".detail-bd-lt .item-gallery .tb-thumb-content img"],
		"price" : [".detail-bd-rt .tb-property-cont .price.price-show .tb-rmb-num"],
		"color" : [
			".widget-custom-container .d-content .obj-leading .obj-content ul.list-leading li .unit-detail-spec-operator",
			"#J_isSku .item-sku ul li a"
		],
		"size" : [".widget-custom-container .d-content .obj-sku .obj-content table.table-sku tr td.name span"]
	},

	"tmall" : {
		"title" : [
			"#J_DetailMeta .tb-detail-hd h1 a",
			"#J_DetailMeta .tb-detail-hd h1",
			".mui-zebra-module .shop-intro h3"
		],
		"image" : [
			"#J_DetailMeta .tb-gallery .ks-imagezoom-wrap img",
			"#J_ImgBooth",
			".mui-zebra-module .img-wrap img"
		],
		"price" : [
			".tm-price-panel .tm-price",
			".mui-zebra-module .shop-price span em",
			"#J_PromoPrice .tm-price"
		],
		"color" : [
			".widget-custom-container .d-content .obj-leading .obj-content ul.list-leading li .unit-detail-spec-operator",
			"#J_DetailMeta .tb-skin .tb-sku .tb-prop.tm-sale-prop.tm-img-prop  ul li a"
		],
		"size" : [".widget-custom-container .d-content .obj-sku .obj-content table.table-sku tr td.name span"]
	},

	"jingdong" : {
		"title" : [".product-intro .itemInfo-wrap .sku-name"],
		"image" : [".product-intro .preview .main-img img"],
		"price" : [".summary-price-wrap .p-price .price"],
		"color" : [".widget-custom-container .d-content .obj-leading .obj-content ul.list-leading li .unit-detail-spec-operator"],
		"size" : [".widget-custom-container .d-content .obj-sku .obj-content table.table-sku tr td.name span"],
		"attribute" : ["#choose-attrs .item a"]
	}
}